{
  "project_info": {
    "project_number": "267205702194",
    "firebase_url": "https://musicmall-963f1.firebaseio.com",
    "project_id": "musicmall-963f1",
    "storage_bucket": "musicmall-963f1.appspot.com"
  },
  "client": [
    {
      "client_info": {
        "mobilesdk_app_id": "1:267205702194:android:2fe7d5f4fbf674a2",
        "android_client_info": {
          "package_name": "com.nsofta.newmusicmallplayer"
        }
      },
      "oauth_client": [
        {
          "client_id": "267205702194-ao5b867blif9uujhrv2c2bfr38f3u751.apps.googleusercontent.com",
          "client_type": 3
        }
      ],
      "api_key": [
        {
          "current_key": "AIzaSyBFUBoQhwBg-N48Zvq8uyE9YX9yBonl43c"
        }
      ],
      "services": {
        "analytics_service": {
          "status": 1
        },
        "appinvite_service": {
          "status": 1,
          "other_platform_oauth_client": []
        },
        "ads_service": {
          "status": 2
        }
      }
    }
  ],
  "configuration_version": "1"
}